6 Section 5 - Classification with More than Two Classes and the Caret Package | Data Science Machine Learning
…
\(\sum_{i: x_{i}R_{1}(j,s)}(y_{i} - \hat{y}_{R_{1}})^2 + \sum_{i: x_{i}R_{2}(j,s)}(y_{i} - \hat{y}_{R_{2}})^2\)

To fit the regression tree model, we can use the rpart() function in the rpart package.

Two common parameters used for partition decision are the complexity parameter (cp) and the minimum number of observations required in a partition before partitioning it further (minsplit in the rpart package).

If we already have a tree and want to apply a higher cp value, we can use the prune() function. We call this pruning a tree because we are snipping off partitions that do not meet a cp criterion.

Code

# Load data
data("olive")
olive %>% as_tibble()

## # A tibble: 572 x 10
##    region         area         palmitic palmitoleic stearic oleic linoleic linolenic arachidic eicosenoic
##    <fct>          <fct>           <dbl>       <dbl>   <dbl> <dbl>    <dbl>     <dbl>     <dbl>      <dbl>
##  1 Southern Italy North-Apulia    10.8        0.75     2.26  78.2     6.72      0.36      0.6       0.290
##  2 Southern Italy North-Apulia    10.9        0.73     2.24  77.1     7.81      0.31      0.61      0.290
##  3 Southern Italy North-Apulia     9.11       0.54     2.46  81.1     5.49      0.31      0.63      0.290
##  4 Southern Italy North-Apulia     9.66       0.570    2.4   79.5     6.19      0.5       0.78      0.35 
##  5 Southern Italy North-Apulia    10.5        0.67     2.59  77.7     6.72      0.5       0.8       0.46 
##  6 Southern Italy North-Apulia     9.11       0.49     2.68  79.2     6.78      0.51      0.7       0.44 
##  7 Southern Italy North-Apulia     9.22       0.66     2.64  79.9     6.18      0.49      0.56      0.290
##  8 Southern Italy North-Apulia    11          0.61     2.35  77.3     7.34      0.39      0.64      0.35 
##  9 Southern Italy North-Apulia    10.8        0.6      2.39  77.4     7.09      0.46      0.83      0.33 
## 10 Southern Italy North-Apulia    10.4        0.55     2.13  79.4     6.33      0.26      0.52      0.3  
## # … with 562 more rows
…
